<svg xmlns="http://www.w3.org/2000/svg" width="18" height="18" viewBox="0 0 18 18">
    <g fill="none" fill-rule="evenodd">
        <path d="M0 0h18v18H0z"/>
        <path fill="#6B758E" fill-rule="nonzero" d="M11.625 10.5h-.592l-.21-.203A4.853 4.853 0 0 0 12 7.125 4.875 4.875 0 1 0 7.125 12a4.853 4.853 0 0 0 3.172-1.178l.203.21v.593l3.75 3.742 1.117-1.117-3.742-3.75zm-4.5 0A3.37 3.37 0 0 1 3.75 7.125 3.37 3.37 0 0 1 7.125 3.75 3.37 3.37 0 0 1 10.5 7.125 3.37 3.37 0 0 1 7.125 10.5z"/>
    </g>
</svg>
