<svg xmlns="http://www.w3.org/2000/svg" width="15" height="30" viewBox="0 0 15 30" style="filter: drop-shadow( 1px 0 2px hsla(0, 0%, 0%, 0.24))">
    <g fill="none" fill-rule="evenodd">
        <path fill="#FFF" d="M0 15L15 0v30z" />
    </g>
</svg>
